{
	"home": {
		"text": {
			"slogan": "continuing the conversation",
			"hdr-news": "Hírek",
			"hdr-dls": "Letöltések",
			"hdr-forum": "Fórum",

			"s1-h": "Ami régi az új újra!",
			"s1-p": "Escargot egy egyedi szerver, ami újra működteti az MSN és Windows Live Messengert",
			"signup-txt": "Regisztrálás",
			"dl-msg": "Messenger Letöltése",

			"s2-h": "\"De miért?\"",
			"s2-p": "<strong>Miért ne?</strong> MSN Messenger az egyik legjobb azonnali üzenetváltó és internetes program volt a Facebook, Skype, Discord vagy a Twitter előtt. De Microsoft 2012-ben megvette a Skype programot, továbbá azt szerette volna fejleszteni tovább később az MSN-t leállította. Az emberek sokat dolgoztak rajta, hogy működő program lehet, tehát csevegni tudsz a pgoramban az egész világon!",

			"s3-h": "\"De hogy?\"",
			"s3-p": "<strong>Escargot</strong> egy szerver, ami újra működtetévé teszi az MSN Messenger szervereit. A program működik de jelenleg Windows Live Messenger 2009 és 2011/2012 még nem érhető el különböző protollon, de van ugymond újraélesztő csapatunk. <a href='https://gitlab.com/valtron/msn-server'>GitLab</a>, érezd az ingyenességet!",

			"s4-h1": "\"És most?\"",
			"s4-h2": "Néhány ötlet! Például:",
			"s4-signup": "Regisztrálj az Escargotra",
			"s4-dl": "Töltsd le a Messengert",
			"s4-forum": "Beszélgess az Escargot Forumon",
			"s4-news": "Nézd meg az Escargot híreket!",

			"status-msg1": "1. Ha régebbi MSN programot szeretnél használni Szükséges a \"Régi MSN Támogatás\". <br>\n<strong>Figyelem: MSN 1/2/3/4 verziónak nincs biztonságos bejelentkezése</strong> és használnod kell  \"Régi MSN Támogatás\" egy erős jelszóval.",
			"status-msg2": "2. 8.1 és 8.5 verzió működése jóvá van hagyva.",

			"ftr-home": "Kezdőlap",
			"ftr-signup": "Regisztrálás",
			"ftr-dls": "Letöltések",
			"ftr-news": "Hírek",

			"ftr-txt": "Escargot 2018. Dizájnolta: <a href='http://www.spriteclad.com/main.html' id='Spriteclad-link'>Spriteclad</a>. Weboldal készítő: <a href='http://www.maigol.ml/' id='Maigol-link'>Maigol</a>. Fordította: Magyar nyelvre: <a style='color:#B40431;text-decoration:underline' href='https://wink.messengergeek.com/u/Balazs_V/'>Balázs V.</a>\n<br></br>\nMSN, MSN Messenger, Windows Live, \"Windows\", and Windows Live Messenger programok a Microsoft tulajdonában vannak. Nem a miénk. Ez csak egy hobbi projekt.",


			"not-found-title": "404 - Az oldal nem található",
			"nf-msg1": "Amit keresnél az át lett helyezve, átnevezve vagy törölve lett",
			"nf-msg2": "Vagy elírtad a linket.",


			"faq-title": "GYIK",
			"faq-subtitle": "Legtöbbje <a href='https://wink.messengergeek.com/t/the-escargot-mega-faq-subject-to-change/4849' target='_blank'>Innét származik</a>.",

			"q1-s": "Regisztrálnom kell Microsoft fiókot az Escargot használatára?",
			"q1-p1": "Jelenleg a válasz nem. Ez azért van, mert szinte az összes olyan hitelesítési módszer, amelyet az MSN Messenger az évek során felhasználva alapvetően elhomályosítja a jelszót a sima látásból, ami jó, de a jelszóhoz való hozzáférés lehetővé tenné, hogy a kiszolgáló összekapcsolja fiókját a Microsoft meglévő szolgáltatásaival - és az élő e-mail értesítéseket a bejelentkezett felhasználókba, valamint az MSN Messenger-fiókban lévő partnerlistákkal együtt tükrözheti, amelyek az e-mail címjegyzékében szereplő információkat tükrözik, mivel így működött, amikor az MSN Messenger aktív volt.",

			"q2-s": "Az Escargot aktívan fejlődik?",
			"q2-p1": "A fejlődés szórványos.\nAz egyéb frontendek (Yahoo! Messenger, IRC, AIM, XMPP) hamarosan hamarosan elérhetők.",
			"q2-p2": "<a href='https://gitlab.com/valtron/msn-server' target='_blank'>A szerver</a> teljesen ingyenes és nyílt forráskodú és szabadon felhasználható <a href='https://gitlab.com/valtron/msn-server/tree/dev' target='_blank'>Weboldal</a> a legújabb kódokhoz.",

			"q3-s": "Escargot támogatni fogja az egyéb meghalt IM szolgáltatásokat?",
			"q3-p1": "Igen! Jelenleg az AIM, Yahoo illetve Skype program támogatva van!",

			"q4-s": "Nem tudom bejelentkezni MSN 1.0 - 4.0 programba. Miért?",
			"q4-p1": "Elösszőr ellenőrizd, hogy bekapcsoltad a fiók regisztrálás előtt a \"Régi MSN Támogatás\" Funkciót. Ha nem akkor létre kell hoznod új fiókot amivel engedélyezted a fúnkciót.",
            
			"q4-p2": "Esetleg elfelejtetted a jelszavad kattints az Elfelejtett jelszó funckióra, hogy küldjön az Escargot egy automatikus emailt melyben változtatni tudsz jelszót.",
			"q4-p3": "Most be kell tudnod jelentkezni a programba! Ha a hiba még fenn áll, Telepítsd fel ezt a programot <strong>HIBÁTLANUL</strong> <a target='_blank' href='http://storage.log1p.xyz/SetEscargotServer.reg'>A regisztrációs fájl a hivatalos weboldalról származik.</a>.",
			"q4-p4": "Now, a fair warning about doing this, not just with MSN Messenger, but with any program:",
			"q4-p5": "You <strong>MUST</strong> use a hex editor or a text editor that retains binary data and be careful when modifying the program files, or else you'll corrupt the MSN Messenger program and/or its components, requiring you to reinstall the program. If you're unsure about your binary modification skills or what to use to modify the program, get a friend who is skilled or at least knows what they're doing and let them help you with all of the magic.",

			"q5-s": "Miután hozzá adtam egy partnert a partnerlistámhoz de a pertner nem érhető el miközben a távoli gépen be van jelentkezve. Miért?",
			"q5-p1": "Ez egy hiba, legtöbbje már javítva van. A hiba a protokolloktól származik.",

			"q6-s": "A WLM 2009-2012 támogatása megvalósul, és ha nem, miért?",
			"q6-p1": "Yes, finally. After a year of being stumped and running around in circles, we've found out why WLM 2009 wouldn't work for us in the first place, which is due to a missing dependency separate from the WLM version's MSI.",
			"q6-p2": "At the moment, support for MSNP18 is near completion. Almost everything except Circles/Groups and the \"What's New\" service have been completed and tested to work without any problems, with MPoP being implemented, but partially tested and unconfirmed as to whether it works as intended. We aren't definitely sure about implementing \"What's New\", since that would require Escargot to have a social network where you could post and read feeds from the \"What's New\" service, and right now, it seems like overkill to us, but either way, this is a major milestone for us, as we are near finishing off the MSN circle. Now it's just MSNP21 to implement afterwards, and it's game over. For the users, at least.",
			"q6-p3": "For us, however, we'll still be refining everything to make MSN as flawless and usable as possible, so we'll still be having fun playing around with MSN's protocol for just a bit longer.",

			"q7-s": "Az Escargot letilt, és a szokásosnál hosszabb időt vesz igénybe, vagy nem tudok bejelentkezni. Bármely ok miért?",
			"q7-p1": "Ismert probléma. olvasd el <a target='_blank' href='https://wink.messengergeek.com/t/why-the-escargot-server-has-random-malfunction-periods-from-time-to-time/4264'>ezt a témát.</a>.",

			"q8-s": "Lehet használni az Escargot szolgáltatást az okostelefonon?",
			"q8-p1": "Azoknál a srácoknál, akik hajlamosak beszélgetni az útközben lévő emberekkel, volt egy hivatalos WLM alkalmazás az iOS-nál és néhány harmadik féltől származó MSN Messenger alkalmazásnál azok számára, akik Android-eszközöket és Java-alapú mobiltelefonokat használtak, de ezekhez olyan XMPP átjárókra van szükség, még nem valósult meg (és esetleg nincs érdeke a pillanat alatt).",
			"q8-p2": "Ráadásul az iOS alkalmazásnak ugyanaz a problémája, mint minden más licencelt iOS-alkalmazás létezik: a fő alkalmazásmodul titkosítása. Van dokumentáció arról, hogyan lehet ezeket a vadakat dekódolni, de nem állnak rendelkezésre a használandó segédprogramok tekintetében.",
			"q8-p3": "Szerencsére, ha történetesen egy Android készüléket helyeztek körül, a dev csapat néhány tagja egy Mercury Messenger nevű alkalmazást kerestetett, amely a legfontosabb MSN / WLM kiszolgálókhoz csatlakozik, nem pedig az átjárókra támaszkodva, és ez nagyon jó az Android számára alkalmazást. Tekintse meg ezt a szálat, hogy töltse le az alkalmazások módosított verzióit, amelyeket ezek a csapattagok kiadtak az Ön számára, hogy csatlakozzanak az Escargotra: <a target='_blank' href='https://wink.messengergeek.com/t/beta-2-mercury-messenger-for-android-with-msnp15-and-msnp11-support/2216'>BETA 2: Mercury Messenger for android with MSNP15 and MSNP11 support</a>.Tudod élvezni a programot, akárhol is vagy!",

			"q9-s": "Amikor a \"MSNP11\" beállítással a Mercury Messengeret használom, nem csatlakozik. Mi a megoldás megoldás?",
			"q9-p1": "Probálj bejelentkezni <code>MSNP15</code> protokollall. Működnie kell Mercury Messenger.",

			"q10-s": "Az Escargot végrehajtja-e a hirdetéseket az MSN / WLM helyőrző hirdetésablakának betöltésére, vagy általánosságban a hirdetések megjelenítésére?",
			"q10-p1": "Az Escargot biztosan <strong> NEM </ strong> helyezi a hirdetéseket. A Microsoft jogi részlege észre fogja venni, hogy az IP-jükről lemondanak (a szellemi tulajdon, alapvetően a valódi mondás, hogy valaki / valami birtokolja a dolgokat), és megszünteti és megállítja a projektet. Nem akarjuk, ugye?",
			"q10-p2": "Bár a \"mock\" hirdetéseket fel lehetne állítani, nem pedig monetáris nyereségre, hanem a lulzra vagy a kapcsolódó projektek előmozdítására.",

			"q11-s": "Hozzáadom ezeket a véletlenszerű bosszantó csoportos csevegéseket / többfelhasználós beszélgetéseket, amelyeknek nincs ellenõrzése a blokkolásnak! Van valami, amiben segíthetek?",
			"q11-p1": "Ez nem az Escargotra jellemző, és mindkét esetben ez túlmutat az irányításunkon, mivel ezt saját felhasználói alapunk végzi. A legkevesebb, amit tehetünk, blokkolja a csoportos beszélgetések / többfelhasználós beszélgetések gyanús tulajdonosait, és ha ez nem elég az Ön számára, győződjön meg róla, hogy az Ön adatvédelmi lehetőségei csak a partnerlistán szereplő személyeknek szólnak, hogy beszéljenek veled, a leírás alapján <a target='_blank' href='https://wink.messengergeek.com/t/are-you-being-invited-to-group-chats-over-and-over-come-in-i-have-a-solution/1173'>ebben a témában.</a>.",

			"q12-s": "Lehet támogatni az Escargot csapatot??",
			"q12-p1": "Erre nincs szükségünk jelenleg",
			"q12-p2": "A tárhelydíjak kezelhetők mostanában (többnyire a letöltéshez szükséges sávszélességért fizetnek), de ha valaha ilyeneket csinálunk, valószínűleg elkezdjük a kriptográfiai adományok elfogadását."
		},
		"status": {
			"supported": "Támogatott",
			"wip": "W.I.P.",
			"not-supported": "Még nem"
		}
	},
	"register": {
		"text": {
			"mkacc-title": "Fiók létrehozása",
			"mkacc-subtitle": "(Hogy megváltoztasd az elfelejtett jelszavadat, <a href='/forgot'>Kattints ide</a>.)",
			
			"support_old-text": "Régi MSN Támogatás (Szükséges a  MSN 1/2/3/4 belépéshez). Ez a verzió <strong>nem biztonságos.</strong>",
			"goto-downloads": "Van már fiókod?",
			"mkacc-button": "Fiók létrehozása",

			"no-errors": "Fiók <strong id='created_email'>{{ created_email }}</strong> Létrehozva. Jó szórakozást!",
			"errors": "Fiók nem lett létrehozva. Ellenőrizd a hiba kódot!."
		},
		"placeholders": {
			"email": "te@emailcimed.com",
			"password1": "6+ karakter",
			"password2": "Jelszó újra"
		},
		"errors": {
			"email": {
				"used": "Email már használatban van.",
				"invalid": "Helytelen email",
				"pass-in-email": "Ne az email címhez írd a jelszavadat"
			},
			"password1": {
				"too-short": "Jelszó túl kicsi. Legalább 6 karaternek kell lennie."
			},
			"password2": {
				"no-match": "A két jelszó nem egyezik."
			}
		}
	},
	"downloads": {
		"text": {
			"step1-title": "Válassz nyelvet",
			"bg-lng": "Arabic",
			"ar-lng": "Bulgarian",
			"cns-lng": "Kínai (egyszerűsített)",
			"cnt-lng": "Kínai (hagyományos)",
			"hr-lng": "Croatian",
			"cs-lng": "Czech",
			"da-lng": "Dannish",
			"nl-lng": "Német",
			"en-lng": "Angol",
			"et-lng": "Estonian",
			"fi-lng": "Finnish",
			"fr-lng": "French",
			"el-lng": "Görög",
			"he-lng": "Hebrew",
			"hu-lng": "Magyar",
			"it-lng": "Olasz",
			"ja-lng": "Japán",	
			"ko-lng": "Kóreai",
			"lv-lng": "Latvian",
			"lt-lng": "Lithuanian",
			"nb-lng": "Norvég",
			"pl-lng": "Polish",
			"br-lng": "Bratíl",
			"pt-lng": "Portugál",
			"ro-lng": "Román",
			"ru-lng": "Orosz",
			"sk-lng": "Szlovák",
			"sl-lng": "Slovene",
			"es-lng": "Spanish",
			"sv-lng": "Svéd",
			"th-lng": "Thai",
			"tr-lng": "Török",
			"uk-lng": "Ukrajnai",

			"step2-title": "Kezdjük az Escargottal!",

			"reco-dl": "LETÖLTÉS",
			"reco-reco": "Ajánlott verzió",
			"reco-ver": "WLM verzió 8.5",
			"reco-size": "12.7 MB - javított",

			"ppv-title": "Javított verziók",

			"upv-title": "Nem-javított verziók",
			"patching-link": "(Hogyan javítsd)",

			"extras-title": "Extrák"
		},
		"xtras": {
			"titles": {
				"msgplus3": "Messenger Plus!",
				"msgplus4": "Messenger Plus! Live",
				"msgplussound": "Messenger Plus! Hang javító",
				"msgpluslivesound": "Messenger Plus! Live Hang javító",
				"poly": "MSN Polygamy",
				"emotcreator": "Hangulatjel ksézítő",
				"archive": "MSN Messenger verzió archívúm",
				"patcher": "Escargot Autojavító",
				"stuffplug30": "StuffPlug 3.0",
				"stuffplug35": "StuffPlug 3.5",
				"richpresence": "Discord Rich Ezzel játszik funkció",
				"mercury": "Mercury Messenger"
			},
			"descs": {
				"msgplus3": "MSN még szórakoztatóbb! (MSN 7.5 & régebbi) - by Patchou",
				"msgplus4": "MSN még szórakoztatóbb (WLM 8.1 & újabb) - by Patchou",
				"msgplussound": "Hang szerver javítása  - by Jonathan Kay",
				"msgpluslivesound": "Hang szerver javítása Live MSN Plusban - by Mateus Rick",
				"poly": "Egyszerre több MSN kliens futtatása - by IMMonitor",
				"emotcreator": "Egyedi hangulatjel készítés egyszerűen - by Old Bill",
				"archive": "Összes MSN verziók egyben - by Enhanox",
				"patcher": "Automatikusan kijavítja a hibákat a nem javított verziókban - by Enhanox",
				"stuffplug30": "Még több fúnckiók hozzá adása MSN Messengerbe",
				"stuffplug35": "Még több fúnkciók hozzá adása MSN Messengerbe",
				"richpresence": "Információk hozzá adása a Discordba - by Craftplacer",
				"mercury": "Chat on the go! - by Mateus Rick and Tristanleboss"
			}
		}
	},
	"forgot": {
		"text": {
			"forgot-title": "Elfelejtett jelszó",
			"forgot-subtitle": "Ha elfelejtetted a jelszavadat akkor írd ide az email címed.<br /> Kapni fogsz egy levelet, ahol le lesz írva mit kell tenned az új jelszó létrehozáshoz.",

			"send-reset": "Jelszóemlékeztető küldése",

			"no-errors": "Jelszóemlékesztető elküldve - <strong id='sent_to'>{{ sent_to }}</strong>.",
			"errors": "A jelszóemlékesztető nem lett elküldve. Lásd a hibát."
		},
		"errors": {
			"errors": {
				"invalid": "Helytelen email",
				"not-registered": "Eamil cím nem lett regisztrálva. Regisztráltál már <a href='/register'>itt</a>?",
				"not-sent": "Email nem lett elküldve."
			}
		}
	},
	"reset": {
		"text": {
			"reset-title": "Jelszó visszaállítása",
			"reset-valid": "Írd ide az új jelszavadat.",
			"reset-expired": "Bocsánat, a link lejárt. Kérlek <a href='/forgot'>probáld újra</a>.",

			"no-errors": "Az új jelszó sikeresen megtörtént.",
			"errors": "Az új jelszó nem lett létrehozva. Lásd a hibát."
		},
		"errors": {
			"password1": {
				"too-short": "Jelszó túl kicsi. Legalább 6 karakternek kell lennie."
			},
			"password2": {
				"no-match": "Jelszavak nem egyeznek."
			}
		}
	},
	"patching": {
		"text": {
			"none-title": "Manuális Javítási útmutató",
			"none-body": "If you want to patch MSN yourself, you'll need a <a href='https://mh-nexus.de/en/hxd' target='_blank'>hex editor</a> (but <a href='https://notepad-plus-plus.org' target='_blank'>Notepad++</a> works too if you're careful), or you can use <a href='https://gitlab.com/enhanox' target='_blank'>enhanox</a>'s <a href='http://storage.log1p.xyz/misc/Escargot-Autopatcher-1.2.exe'>Escargot Autopatcher</a>.",

			"p8-s1": "Replace <code>msidcrl40.dll</code> with <a href='http://storage.log1p.xyz/msidcrl.dll'>this file</a>, and edit <code>msnmsgr.exe</code>:",
			"p8-s2": "Change <code>messenger.hotmail.com</code> to <code>m1.escargot.log1p.xyz</code>",
			"p8-s3": "Change <code>byrdr.omega.contacts.msn.com</code> to <code>ebyrdromegactcsmsn.log1p.xyz</code>",
			"p8-s4": "Change <code>tkrdr.storage.msn.com</code> to <code>etkrdrstmsn.log1p.xyz</code>",
			"p8-s5": "Change <code>ows.messenger.msn.com</code> to <code>eowsmsgrmsn.log1p.xyz</code>",
			"p8-s6": "Change <code>rsi.hotmail.com</code> to <code>ersih.log1p.xyz</code>",
			"p8-s7": "Change <code>http://config.messenger.msn.com/Config/MsgrConfig.asmx</code> to <code>https://escargot.log1p.xyz/etc/MsgrConfig?padding=qqqq</code>",

			"p75-s1": "Replace <code>msidcrl.dll</code> with <a href='http://storage.log1p.xyz/msidcrl.dll'>this file</a>, and edit <code>msnmsgr.exe</code>:",
			"p75-s2": "Change <code>messenger.hotmail.com</code> to <code>m1.escargot.log1p.xyz</code>",
			"p75-s3": "Change <code>http://config.messenger.msn.com/Config/MsgrConfig.asmx</code> to <code>https://escargot.log1p.xyz/etc/MsgrConfig?padding=qqqq</code>",

			"p70-s1": "Edit <code>msnmsgr.exe</code>:",
			"p70-s2": "Change <code>messenger.hotmail.com</code> to <code>m1.escargot.log1p.xyz</code>",
			"p70-s3": "Change <code>https://nexus.passport.com/rdr/pprdr.asp</code> to <code>https://m1.escargot.log1p.xyz/nexus-mock</code>",
			"p70-s4": "Change <code>PassportURLs</code> to <code>Passporturls</code>",
			"p70-s5": "Change <code>http://config.messenger.msn.com/Config/MsgrConfig.asmx</code> to <code>https://escargot.log1p.xyz/etc/MsgrConfig?padding=qqqq</code>",

			"p50-s1": "First edit <code>msnmsgr.exe</code>:",
			"p50-s2": "Change <code>messenger.hotmail.com</code> to <code>m1.escargot.log1p.xyz</code>",
			"p50-s3": "Change <code>https://nexus.passport.com/rdr/pprdr.asp</code> to <code>https://m1.escargot.log1p.xyz/nexus-mock</code>",
			"p50-s4": "Change <code>PassportURLs</code> to <code>Passporturls</code>",
			"p50-s5": "<strong>(6.0+ only)</strong> Change <code>http://config.messenger.msn.com/Config/MsgrConfig.asmx</code> to <code>https://escargot.log1p.xyz/etc/MsgrConfig?padding=qqqq</code>",
			"p50-s6": "Then edit the registry and change <code>HKEY_CURRENT_USER\\SOFTWARE\\Microsoft\\MSNMessenger\\Server</code> to <code>m1.escargot.log1p.xyz</code>.",
			"p50-s7": "You can either use the registry editor, or download and run this file: <a href='http://storage.log1p.xyz/SetEscargotServer.reg'>SetEscargotServer.reg</a>",

			"p10-s1": "After installing, edit the registry and change <code>HKEY_CURRENT_USER\\SOFTWARE\\Microsoft\\MessengerService\\Server</code> to <code>m1.escargot.log1p.xyz</code>.",
			"p10-s2": "You can either use the registry editor, or download and run this file: <a href='http://storage.log1p.xyz/SetEscargotServer.reg'>SetEscargotServer.reg</a>"
		}
	},
	"unfinished": ["patching", "faq"]
}