{
	"home": {
		"text": {
			"slogan": "Kontynuujemy konwersacje",
			"hdr-news": "Wiadomości",
			"hdr-dls": "Pobieralnia",
			"hdr-forum": "Forum",

			"s1-h": "To, co stare, jest nowe. Znowu.",
			"s1-p": "Escargot to własny serwer, który robi stare wersje MSN Messenger oraz Windows Live Messenger działały spowrotem.",
			"signup-txt": "Zarejestruj się",
			"dl-msg": "Ściągnij Messenger.",

			"s2-h": "\"Ale czemu?\"",
			"s2-p": "<strong>Czemu nie??</strong> MSN Messenger był kiedyś królem nagłych wiadomości oraz programów typu sieci 'Social', w czasach przed Facebookiem, Skypem, Discordem bądź Twitterem. Lecz, Microsoft kupił Skype w 2012 roku oraz pomyśleli, że jest bez sensu mieć włączone 2 serwisy komunikacyjne, więc MSN/WLM zostało wyłączone. Ale szkoda, ponieważ jak nie miał najnowszych opcji, nadal jest dobrą platformą IM. Teraz grupka ludzi pracuję nad serwerem, przez 'reverse engineering' (Na moje szybkie tłumaczenie: Odwrócona inżynieria), dla wszystkich wersji MSN, oraz możesz czatować z ludźmi z całego Świata, właśnie teraz!",

			"s3-h": "\"Ale jak?\"",
			"s3-p": "<strong>Escargot</strong> jest serwerowym Softwarem zbudowanym, żeby zreknstruować starą architekturę MSN Messenger (MSNP[numer, np. 18]), używaną wtedy, kiedy Microsoft nadal miał włączone serwery. Ten kod działa na niektóre wersje MSN, lecz (podczas pisania, oraz tłumaczenia) WLM 2009 oraz 2011/2012 nie chodzą ponieważ chodzą na innych protokołach (m.in nowszy MSNP), które musimy jakoś odbudować (Podczas tłumaczenia, WLM 2009 przychodzi małymi kroczkami). Lecz, cały kod jest otwarty, oraz jest w <a href='https://gitlab.com/valtron/msn-server'>GitLabie</a>, więć śmiało, dodaj coś od siebie!",

			"s4-h1": "\"Co teraz?\"",
			"s4-h2": "Kilka rzeczy. Możesz zrobić:",
			"s4-signup": "Zarejestrować się na Escargot",
			"s4-dl": "Ściągnąć Messenger",
			"s4-forum": "Porozmawiać na forach Escargot",
			"s4-news": "Zobaczyć 'najświeższe' wiadomości z Escargot",

			"status-msg1": "1. Wymaga \"wsparcia dla starych wersji MSN {Werscja 4 wstecz)\" wybraną podczas zakładania konta.<br>\n<strong>Uwaga: MSN 1/2/3/4 nie mają opcji bezpiecznego logowania</strong> oraz używać opcji \"Wsparcie dla starych wersji MSN\" z hasłem, który nie jest cenne.",
			"status-msg2": "2. Tylko 8.1.0178 oraz 8.5 są znane, żeby chodziły; reszta prawdopodnie.",

			"ftr-home": "Strona domowa",
			"ftr-signup": "Zarejestruj się",
			"ftr-dls": "Pobieralnia",
			"ftr-news": "Wiadomości",

			"ftr-txt": "Escargot 2018. Design zrobiony przez <a href='http://www.spriteclad.com/main.html' id='Spriteclad-link'>Spriteclad</a>. Strona zrobiona przez <a href='http://www.maigol.ml/' id='Maigol-link'>Maigol</a>. Przetłumaczone na język polski przez <a style='color:#637fed;text-decoration:underline' href='https://theaero.ml'>ui.</a>\n<br></br>\nMSN, MSN Messenger, Windows Live, \"Windows\", and Windows Live Messenger are all properties of the Microsoft Corporation. We own none of this. This is a fan project for personal purposes only.",


			"not-found-title": "404 - Strony nie znaleziono.",
			"nf-msg1": "Tej rzeczy po prostu nie ma, została skasowana, gdy nocne norki grzebały coś.",
			"nf-msg2": "Albo ty napisałeś na odpierdol, i myślałeś, że jakiś sekret istnieje.",


			"faq-title": "FAQ (Oryginalne, nie tłumaczę, żeby nie rozwalić sensu, jak chcesz rozjebać, zrób to sam. Nie jestem za to odpowiedzialny)",
			"faq-subtitle": "Mostly taken from <a href='https://wink.messengergeek.com/t/the-escargot-mega-faq-subject-to-change/4849' target='_blank'>here</a>.",

			"q1-s": "Do I need to register a Microsoft account to use Escargot?",
			"q1-p1": "At the moment, the answer is no. This is because almost all of the authentication methods MSN Messenger utilized over the years basically obscure the password from plain sight, which is good, but access to the password would let the server intertwine your account with Microsoft's existing services, like Outlook, for example, and push live e-mail notifications out to logged in users, along with contact lists on your MSN Messenger account reflecting the ones on your e-mail's address book, since that's how it worked when MSN Messenger was active. Luckily, two of MSN Messenger's authentication methods do send the password in cleartext via secure HTTPS, which would let us do that, but due to some other existing conflicts, we can't utilize those for real account integration until a proper solution is constructed, <a target='_blank' href='https://wink.messengergeek.com/t/msn-7-5-authentication-the-patchening/4549'>which is being done right now</a>.",
			"q1-p2": "Just know that I'd recommend you to use an actual e-mail address than make one up, which has been done before. Not only will it let people have the option to e-mail you when you're offline on MSN, but when you want to reset your password, Escargot will attempt to send you an e-mail with a link to reset your password. Having an actual e-mail address tied to your Escargot account will make that possible.",

			"q2-s": "Is Escargot being actively developed?",
			"q2-p1": "Development is sporadic.\nHowever, other frontends (Yahoo! Messenger, IRC, AIM, XMPP) might be coming soon. Some even have functional proof-of-concepts.",
			"q2-p2": "<a href='https://gitlab.com/valtron/msn-server' target='_blank'>The server</a> is completely open source and contributions are welcome. Be sure to check out the <a href='https://gitlab.com/valtron/msn-server/tree/dev' target='_blank'>dev branch</a> for the newest code.",

			"q3-s": "Will Escargot support other dead IM clients?",
			"q3-p1": "Yes! In fact, a Yahoo! Messenger frontend is in the works (and mostly working, with caveats). We also have plans for other frontends.",

			"q4-s": "I can't log on to Escargot with MSN Messenger 1.0 - 4.7! Why is that?",
			"q4-p1": "First, you might want to check if your account has the option to log in onto those versions of MSN Messenger, since they utilize insecure methods of authentication that were acceptable at the time of their releases, which was MD5-based authentication (a.k.a. the authentication method that won't let us retrieve the password for integration purposes for people using those versions of the MSN client). When registering, click on the \"Old MSN Support\" checkbox, fully aware that you'll have a password entry in the database with your password, hashed with a now-considered insecure hashing algorithm, before finally registering your account.",
			"q4-p2": "If you have already registered your account and you haven't checked the checkbox before registering, you can request Escargot to reset your password, considering that you didn't use a fake e-mail address when signing up, in order to check the option. Note that if you haven't been planning to change your password in the first place, you can just type in your current password in both of the password fields and check the checkbox as normal before continuing with the reset procedure.",
			"q4-p3": "Now, regarding logging on to the specified clients, as long as you've patched the specific versions of the MSN client <strong>CORRECTLY</strong> with <a target='_blank' href='http://storage.log1p.xyz/SetEscargotServer.reg'>the .reg file supplied on the homepage</a>, then you should be all set. But Windows Messenger 4.7.2009 doesn't follow these standard registry values, and goes the way of MSN 5.0 - 6.2, utilizing Tweener authentication rather than the MD5-based authentication earlier versions used. This is because 4.7.2009 was a modified version of the 4.x codebase released around 2004 that supported the acceptable HTTPS Tweener method of authentication. Luckily, there aren't any special patching instructions for this build of the client, and if you have confirmed that you use 4.7.2009 (Go to \"<code>Help</code> -&gt; <code>About Windows Messenger</code>\", or <code>About MSN Messenger</code> if exceptions apply, and check the parentheses-encased <code>x.x.xxxx</code> string to see what build you use), go <a href='/patching'>follow the patching instructions for MSN Messenger 5.0 - 6.2</a> and apply them to your copy of Windows Messenger 4.7.2009.",
			"q4-p4": "Now, a fair warning about doing this, not just with MSN Messenger, but with any program:",
			"q4-p5": "You <strong>MUST</strong> use a hex editor or a text editor that retains binary data and be careful when modifying the program files, or else you'll corrupt the MSN Messenger program and/or its components, requiring you to reinstall the program. If you're unsure about your binary modification skills or what to use to modify the program, get a friend who is skilled or at least knows what they're doing and let them help you with all of the magic.",

			"q5-s": "After I added someone to my contact list on WLM 8.x, said contact appears offline for a long time even when they aren't. Why does this happen?",
			"q5-p1": "This is a bug, and has been mostly fixed (except for edge cases; WLM 8+'s \"protocols\" are a mess), but the fixes haven't been deployed yet.",

			"q6-s": "Is WLM 2009 - 2012 support being implemented, and if not, why?",
			"q6-p1": "Yes, finally. After a year of being stumped and running around in circles, we've found out why WLM 2009 wouldn't work for us in the first place, which is due to a missing dependency separate from the WLM version's MSI.",
			"q6-p2": "At the moment, support for MSNP18 is near completion. Almost everything except Circles/Groups and the \"What's New\" service have been completed and tested to work without any problems, with MPoP being implemented, but partially tested and unconfirmed as to whether it works as intended. We aren't definitely sure about implementing \"What's New\", since that would require Escargot to have a social network where you could post and read feeds from the \"What's New\" service, and right now, it seems like overkill to us, but either way, this is a major milestone for us, as we are near finishing off the MSN circle. Now it's just MSNP21 to implement afterwards, and it's game over. For the users, at least.",
			"q6-p3": "For us, however, we'll still be refining everything to make MSN as flawless and usable as possible, so we'll still be having fun playing around with MSN's protocol for just a bit longer.",

			"q7-s": "Escargot boots me off and it takes me longer than usual to log in or I can't log in at all. Any reason why?",
			"q7-p1": "Assuming that you haven't botched the patching procedures before logging in, check out <a target='_blank' href='https://wink.messengergeek.com/t/why-the-escargot-server-has-random-malfunction-periods-from-time-to-time/4264'>this thread</a>.",

			"q8-s": "Is there any way for me to use MSN Messenger/Escargot on my phone?",
			"q8-p1": "For you guys that tend to talk to people on the go, there was an official WLM app for iOS and a few third-party MSN Messenger apps for those using Android devices and Java-based cellphones, but those require XMPP gateways that we haven't implemented yet (and possibly have no interest in doing at the moment).",
			"q8-p2": "Plus, the iOS app has the same issue that every other licensed iOS app has in existence: encrypting the main application module. There is documentation on how to decrypt these beasts, but they're incomplete in terms of utilities we can use.",
			"q8-p3": "Luckily, if you happen to have an Android device laying around, some people on the dev team have looked into an app named Mercury Messenger that connects to the core MSN/WLM servers rather than rely on gateways, and it does pretty good for an Android app. See this thread to download the modified versions of the app these team members released for you to connect onto Escargot: <a target='_blank' href='https://wink.messengergeek.com/t/beta-2-mercury-messenger-for-android-with-msnp15-and-msnp11-support/2216'>BETA 2: Mercury Messenger for android with MSNP15 and MSNP11 support</a>. Now you can enjoy MSN Messenger wherever, whenever! (again, for those using Android. Better wait, iOS and Java phone users.)",

			"q9-s": "When I use Mercury Messenger with the \"MSNP11\" setting, it does not connect and times out. Any way to fix this?",
			"q9-p1": "Try logging in with the <code>MSNP15</code> setting. It seems to work right now with Mercury Messenger.",

			"q10-s": "Will Escargot implement ads to fill in the placeholder ad window on MSN/WLM or just place ads up in general?",
			"q10-p1": "Escargot will definitely <strong>NOT</strong> place ads. Microsoft's legal department will notice money being made off their IP (intellectual property; basically the legal way of saying stuff someone/something owns) and cease-and-desist us, destroying the project. We don't want that, do we?",
			"q10-p2": "Although we might put up \"mock\" ads, not for monetary gain but for the lulz or to promote related projects.",

			"q11-s": "I'm being added to these random annoying group chats/multi-user conversations that I don't have any control over of blocking! Is there anything I can do?",
			"q11-p1": "This isn't specific to Escargot, and either way, this is beyond our control, as this is done by our very own userbase. The least you can do is block any suspected owners of these group chats/multi-user conversations, and if that isn't enough for you, make sure that your privacy options only allow people you add on your contact list to talk to you, as described <a target='_blank' href='https://wink.messengergeek.com/t/are-you-being-invited-to-group-chats-over-and-over-come-in-i-have-a-solution/1173'>in this thread</a>.",

			"q12-s": "Will Escargot open up a Patreon/take donations?",
			"q12-p1": "There are no plans for this at the moment.",
			"q12-p2": "Hosting fees are manageable right now (mostly paying for bandwidth for the downloads), but if we ever do something like this, we'll probably start by accepting cryptocurrency donations."
		},
		"status": {
			"supported": "Wspierane",
			"wip": "W pracach",
			"not-supported": "Jeszcze nie"
		}
	},
	"register": {
		"text": {
			"mkacc-title": "Załóż swoje konto",
			"mkacc-subtitle": "(Żeby zmienić/zresetować hasło, <a href='/forgot'>kliknij tutaj</a>.)",
			
			"support_old-text": "Wsparcie dla starych werjsi MSN (wymagane, żeby zalogować się do MSN 1/2/3/4). Te wersje nie są <strong>bezpieczne.</strong>",
			"goto-downloads": "Masz konto w Escargot?",
			"mkacc-button": "Załóż konto",

			"no-errors": "Konto<strong id='created_email'>{{ created_email }}</strong> założone. Miłego gadania.",
			"errors": "Konto nie założone, zobacz poniżej."
		},
		"placeholders": {
			"email": "twoj@email.com",
			"password1": "6 liter/liczb lub więcej",
			"password2": "Wpisz hasło ponownie"
		},
		"errors": {
			"email": {
				"used": "E-mail w użyciu.",
				"invalid": "Niepoprawny E-mail.",
				"pass-in-email": "Nie podawaj hasła tam, gdzie E-mail; tylko, kiedy logujesz się do MSN <5 lub 7.5"
			},
			"password1": {
				"too-short": "Hasło za krótkie, 6 liter/liczb lub więcej wymagane."
			},
			"password2": {
				"no-match": "Nie takie same hasła."
			}
		}
	},
	"downloads": {
		"text": {
			"step1-title": "Wybierz język",
			"bg-lng": "Arabski",
			"ar-lng": "Bułgarski",
			"cns-lng": "Chinński (uproszczony)",
			"cnt-lng": "Chiński (tradycyjny)",
			"hr-lng": "Chrowacki",
			"cs-lng": "Czeski",
			"da-lng": "Duński",
			"nl-lng": "Holenderski",
			"en-lng": "Angielski",
			"et-lng": "Estoński",
			"fi-lng": "Fiński",
			"fr-lng": "Francuzki",
			"el-lng": "Grecki",
			"he-lng": "Hebrajski",
			"hu-lng": "Hebrajski",
			"it-lng": "Włoski",
			"ja-lng": "Japoński",
			"ko-lng": "Koreański",
			"lv-lng": "Łotwski",
			"lt-lng": "Litewski",
			"nb-lng": "Norweski",
			"pl-lng": "Polski",
			"br-lng": "Portugalski (Brazylia)",
			"pt-lng": "Portugalski",
			"ro-lng": "Romański",
			"ru-lng": "Rosysjki",
			"sk-lng": "Słowanśki",
			"sl-lng": "Słoweński",
			"es-lng": "Hiszpański",
			"sv-lng": "Szwedzki",
			"th-lng": "Tajski",
			"tr-lng": "Tureckji",
			"uk-lng": "Ukraiński",

			"step2-title": "Zacznij z Escargot",

			"reco-dl": "POBIERZ TERAZ",
			"reco-reco": "Zalecana wersja",
			"reco-ver": "WLM - wersja 8.5",
			"reco-size": "12.7 MB - Zpaczowane",

			"ppv-title": "Zpaczowane wersje",

			"upv-title": "Nie zpaczowane wersje",
			"patching-link": "(Jak zpaczować samemu)",

			"extras-title": "Dodatki"
		},
		"xtras": {
			"titles": {
				"msgplus3": "Messenger Plus!",
				"msgplus4": "Messenger Plus! Live",
				"msgplussound": "Messenger Plus! - patch dla dźiwęku",
				"msgpluslivesound": "Messenger Plus! Live - patch dla dźiwęku",
				"poly": "MSN Polygamy",
				"emotcreator": "Emoticon creator",
				"archive": "Archiwum klientów MSN Messenger",
				"patcher": "Escargot autopatcher",
				"stuffplug30": "StuffPlug 3.0",
				"stuffplug35": "StuffPlug 3.5",
				"richpresence": "Rich presence",
				"mercury": "Mercury Messenger"
			},
			"descs": {
				"msgplus3": "Więcej frajdy z MSN! (MSN 7.5 poniżej) - od Patchou",
				"msgplus4": "Więcej frajdy z MSN! (WLM 8.1 zwyż) - od Patchou",
				"msgplussound": "Zmieni dźwięk serwerowy używany przez Messenger Plus! - od Jonathan Kay",
				"msgpluslivesound": "Zmieni dźwięk serwerowy używany przez Messenger Plus! Live - od Mateus Rick",
				"poly": "Pozwala otwierać różne wersje MSN jednocześnie - od IMMonitor",
				"emotcreator": "Ułatwia tworzenie własnych emotek - od Old Bill",
				"archive": "Archiwum wszystkich instalatorów MSN Messenger - od Enhanox",
				"patcher": "Automatyczne paczuje wersje MSN Messenger - od Enhanox",
				"stuffplug30": "Dodaje opcje do MSN Messenger",
				"stuffplug35": "Dodaje opcje do MSN Messenger",
				"richpresence": "Dodaje informacje od Messenger do Discordz przez funkcję Rich Presence - od Craftplacer",
				"mercury": "Chat on the go! - by Mateus Rick and Tristanleboss"
			}
		}
	},
	"forgot": {
		"text": {
			"forgot-title": "Zapomniałem hasła",
			"forgot-subtitle": "Jak zapomniałeś hasła, lub chcesz zmienić, wpisz adres E-mail poniżej.<br/>Otrzymasz wiadomość z instrukcjami, żeby zmienić hasło.",

			"send-reset": "Wyślij wiadomość",

			"no-errors": "Wiadmość została wysłana do <strong id='sent_to'>{{ sent_to }}</strong>.",
			"errors": "Nie udało wysłać wiadomości. Zobacz poniżej."
		},
		"errors": {
			"errors": {
				"invalid": "Niepoprawny E-mail.",
				"not-registered": "E-mail nie zarejestrowany. Czy <a href='/register'>zarejestrowałeś sie</a>?",
				"not-sent": "Nie można wysłać wiadomości."
			}
		}
	},
	"reset": {
		"text": {
			"reset-title": "Resetuj hasło",
			"reset-valid": "Używaj ponższego formularza poniżej..",
			"reset-expired": "Link został zgaszony. <a href='/forgot'>Spróbuj ponowie</a>.",

			"no-errors": "Hasło zostało zmienione.",
			"errors": "Hasło nie zostało zmienione, zobacz poniżej."
		},
		"errors": {
			"password1": {
				"too-short": "Hasło zbyt krotkie, przynajmniej 6 liter/słów."
			},
			"password2": {
				"no-match": "Hasła nie są takie same."
			}
		}
	},
	"patching": {
		"text": {
			"none-title": "Instrukcja paczowania. (Nie przetłumaczone dopóki tłumacz nie wyzdrowieje, jak ktoś chce, niech to za mnie wytłumaczy.)",
			"none-body": "If you want to patch MSN yourself, you'll need a <a href='https://mh-nexus.de/en/hxd' target='_blank'>hex editor</a> (but <a href='https://notepad-plus-plus.org' target='_blank'>Notepad++</a> works too if you're careful), or you can use <a href='https://gitlab.com/enhanox' target='_blank'>enhanox</a>'s <a href='http://storage.log1p.xyz/misc/Escargot-Autopatcher-1.2.exe'>Escargot Autopatcher</a>.",

			"p8-s1": "Replace <code>msidcrl40.dll</code> with <a href='http://storage.log1p.xyz/msidcrl.dll'>this file</a>, and edit <code>msnmsgr.exe</code>:",
			"p8-s2": "Change <code>messenger.hotmail.com</code> to <code>m1.escargot.log1p.xyz</code>",
			"p8-s3": "Change <code>byrdr.omega.contacts.msn.com</code> to <code>ebyrdromegactcsmsn.log1p.xyz</code>",
			"p8-s4": "Change <code>tkrdr.storage.msn.com</code> to <code>etkrdrstmsn.log1p.xyz</code>",
			"p8-s5": "Change <code>ows.messenger.msn.com</code> to <code>eowsmsgrmsn.log1p.xyz</code>",
			"p8-s6": "Change <code>rsi.hotmail.com</code> to <code>ersih.log1p.xyz</code>",
			"p8-s7": "Change <code>http://config.messenger.msn.com/Config/MsgrConfig.asmx</code> to <code>https://escargot.log1p.xyz/etc/MsgrConfig?padding=qqqq</code>",

			"p75-s1": "Replace <code>msidcrl.dll</code> with <a href='http://storage.log1p.xyz/msidcrl.dll'>this file</a>, and edit <code>msnmsgr.exe</code>:",
			"p75-s2": "Change <code>messenger.hotmail.com</code> to <code>m1.escargot.log1p.xyz</code>",
			"p75-s3": "Change <code>http://config.messenger.msn.com/Config/MsgrConfig.asmx</code> to <code>https://escargot.log1p.xyz/etc/MsgrConfig?padding=qqqq</code>",

			"p70-s1": "Edit <code>msnmsgr.exe</code>:",
			"p70-s2": "Change <code>messenger.hotmail.com</code> to <code>m1.escargot.log1p.xyz</code>",
			"p70-s3": "Change <code>https://nexus.passport.com/rdr/pprdr.asp</code> to <code>https://m1.escargot.log1p.xyz/nexus-mock</code>",
			"p70-s4": "Change <code>PassportURLs</code> to <code>Passporturls</code>",
			"p70-s5": "Change <code>http://config.messenger.msn.com/Config/MsgrConfig.asmx</code> to <code>https://escargot.log1p.xyz/etc/MsgrConfig?padding=qqqq</code>",

			"p50-s1": "First edit <code>msnmsgr.exe</code>:",
			"p50-s2": "Change <code>messenger.hotmail.com</code> to <code>m1.escargot.log1p.xyz</code>",
			"p50-s3": "Change <code>https://nexus.passport.com/rdr/pprdr.asp</code> to <code>https://m1.escargot.log1p.xyz/nexus-mock</code>",
			"p50-s4": "Change <code>PassportURLs</code> to <code>Passporturls</code>",
			"p50-s5": "<strong>(6.0+ only)</strong> Change <code>http://config.messenger.msn.com/Config/MsgrConfig.asmx</code> to <code>https://escargot.log1p.xyz/etc/MsgrConfig?padding=qqqq</code>",
			"p50-s6": "Then edit the registry and change <code>HKEY_CURRENT_USER\\SOFTWARE\\Microsoft\\MSNMessenger\\Server</code> to <code>m1.escargot.log1p.xyz</code>.",
			"p50-s7": "You can either use the registry editor, or download and run this file: <a href='http://storage.log1p.xyz/SetEscargotServer.reg'>SetEscargotServer.reg</a>",

			"p10-s1": "After installing, edit the registry and change <code>HKEY_CURRENT_USER\\SOFTWARE\\Microsoft\\MessengerService\\Server</code> to <code>m1.escargot.log1p.xyz</code>.",
			"p10-s2": "You can either use the registry editor, or download and run this file: <a href='http://storage.log1p.xyz/SetEscargotServer.reg'>SetEscargotServer.reg</a>"
		}
	},
	"unfinished": ["faq", "patching"]
}